0 - Bovenste rij 1, 0 = aan
1 - Bovenste rij 2, 0 = aan
2 - Bovenste rij 3, 0 = aan
3 - Bovenste rij 4, 0 = aan
4 - Bovenste rij 5, 0 = aan
5 - Bovenste rij 6, 0 = aan
6 - nc?
7 - nc?
8 - master, 0 = aan
9 - gen, 0 = aan
0 - bat, 0 = aan
1 - Onderste rij 1, 0 = aan
2 - Onderste rij 1, 0 = aan
3 - Onderste rij 3, 0 = aan
4 - Onderste rij 4, 0 = aan
5 - pitch up, 0 = aan
6 - pitch dn, 0 = aan
7 - fuel tank r, 0 = aan
8 - nc?
9 - fuel tank r, 0 = aan
0 - break, 0 = aan

0 - flaps 1024 = up, 512 = mid, 0 = down
1 - ignition, 0 = off, 256 = 1, 512 = 2, 768 = both, 1024 = starter
2 - mixture, 466 = lean, 811 = rich
3 - nc?
4 - nc?